[
 {
  "docstatus": 0, 
  "doctype": "Workflow Action", 
  "modified": "2017-08-03 12:28:09.196219", 
  "name": "Approve", 
  "workflow_action_name": "Approve"
 }, 
 {
  "docstatus": 0, 
  "doctype": "Workflow Action", 
  "modified": "2017-08-03 12:28:09.228264", 
  "name": "Reject", 
  "workflow_action_name": "Reject"
 }, 
 {
  "docstatus": 0, 
  "doctype": "Workflow Action", 
  "modified": "2017-08-03 12:28:09.231071", 
  "name": "Review", 
  "workflow_action_name": "Review"
 }, 
 {
  "docstatus": 0, 
  "doctype": "Workflow Action", 
  "modified": "2017-08-03 13:16:19.676762", 
  "name": "Cancel", 
  "workflow_action_name": "Cancel"
 }
]